%YAML 1.1
%TAG !u! tag:unity3d.com,2011:
--- !u!1045 &1
EditorBuildSettings:
  m_ObjectHideFlags: 0
  serializedVersion: 2
  m_Scenes:
  - enabled: 1
    path: Assets/Scenes/Intro.unity
    guid: 5f04302c017064947a4be1fd2e32ef7b
  - enabled: 1
    path: Assets/Scenes/Menu.unity
    guid: 26c011b7e4629b243abfb1727cffa735
  - enabled: 1
    path: Assets/Scenes/SampleScene.unity
    guid: 9fc0d4010bbf28b4594072e72b8655ab
  - enabled: 1
    path: Assets/Scenes/fin.unity
    guid: e6d16c1b84f574147b61672ca612be42
  m_configObjects: {}
